Excel로 저장된 주민등록 인구수를 R로 읽어 tidy 데이터로 변환하기 – Data blog
…
dat

## # A tibble: 26 × 209
##    행정기관코드 행정기관          `총 인구수...3` 연령구간인구수...4 `0~4세...5`
##    <chr>        <chr>                       <dbl>              <dbl>       <dbl>
##  1 4211000000   강원도 춘천시              261975             261975       11381
##  2 4211025000   강원도 춘천시 신…            7531               7531         264
##  3 4211031000   강원도 춘천시 동…            6025               6025         284
##  4 4211032000   강원도 춘천시 동…            1613               1613          38
##  5 4211033000   강원도 춘천시 신…            2603               2603          58
##  6 4211034000   강원도 춘천시 남…            1130               1130          27
##  7 4211035000   강원도 춘천시 서…            4151               4151         109
##  8 4211036000   강원도 춘천시 사…            2600               2600          55
##  9 4211038000   강원도 춘천시 북…             886                886          10
## 10 4211039000   강원도 춘천시 동…           10585              10585         642
## # ℹ 16 more rows
## # ℹ 204 more variables: `5~9세...6` <dbl>, `10~14세...7` <dbl>,
## #   `15~19세...8` <dbl>, `20~24세...9` <dbl>, `25~29세...10` <dbl>,
## #   `30~34세...11` <dbl>, `35~39세...12` <dbl>, `40~44세...13` <dbl>,
## #   `45~49세...14` <dbl>, `50~54세...15` <dbl>, `55~59세...16` <dbl>,
## #   `60~64세...17` <dbl>, `65~69세...18` <dbl>, `70~74세...19` <dbl>,
## #   `75~79세...20` <dbl>, `80~84세...21` <dbl>, `85~89세...22` <dbl>, …
…
dat

## # A tibble: 26 × 209
##    ...1      ...2    ...3   ...4  ...5  ...6  ...7  ...8  ...9 ...10 ...11 ...12
##    <chr>     <chr>  <dbl>  <dbl> <dbl> <dbl> <dbl> <dbl> <dbl> <dbl> <dbl> <dbl>
##  1 42110000… 강원… 261975 261975 11381 15326 18927 18260 17214 19038 17812 22623
##  2 42110250… 강원…   7531   7531   264   289   353   433   459   481   462   500
##  3 42110310… 강원…   6025   6025   284   331   333   375   376   381   372   483
##  4 42110320… 강원…   1613   1613    38    48    58    74   110    87    55    80
##  5 42110330… 강원…   2603   2603    58    76   135   163   193   158   112   156
##  6 42110340… 강원…   1130   1130    27    22    25    38    53    61    43    53
##  7 42110350… 강원…   4151   4151   109   127   155   229   219   216   173   193
##  8 42110360… 강원…   2600   2600    55    90   117   146   148   128    85   129
##  9 42110380… 강원…    886    886    10    14    26    50    35    27    25    38
## 10 42110390… 강원…  10585  10585   642   670   714   620   589   788   882  1018
## # ℹ 16 more rows
## # ℹ 197 more variables: ...13 <dbl>, ...14 <dbl>, ...15 <dbl>, ...16 <dbl>,
## #   ...17 <dbl>, ...18 <dbl>, ...19 <dbl>, ...20 <dbl>, ...21 <dbl>,
## #   ...22 <dbl>, ...23 <dbl>, ...24 <dbl>, ...25 <dbl>, ...26 <dbl>,
## #   ...27 <dbl>, ...28 <dbl>, ...29 <dbl>, ...30 <dbl>, ...31 <dbl>,
## #   ...32 <dbl>, ...33 <dbl>, ...34 <dbl>, ...35 <dbl>, ...36 <dbl>,
## #   ...37 <dbl>, ...38 <dbl>, ...39 <dbl>, ...40 <dbl>, ...41 <dbl>, …
…
pivot_longer()함수의 주요 인수는 다음과 같습니다.

첫번째 인수 : 데이터 (여기서는 %>%으로 전달)

두번째 인수 : (해당 데이터에서 long format으로) 변환할 열

names_to 인수 : 변환후 기존 열 이름을 값으로 하는 열 이름

values_to 인수 : 변환후 기존 값이 저장될 열 이름

dat %>%
  pivot_longer(-(1:2), names_to="age_grp", values_to="pops")

## # A tibble: 5,382 × 4
##    code       region        age_grp                    pops
##    <chr>      <chr>         <chr>                     <dbl>
##  1 4211000000 강원도 춘천시 2008년_계_총 인구수      261975
##  2 4211000000 강원도 춘천시 2008년_계_연령구간인구수 261975
##  3 4211000000 강원도 춘천시 2008년_계_0~4세           11381
##  4 4211000000 강원도 춘천시 2008년_계_5~9세           15326
##  5 4211000000 강원도 춘천시 2008년_계_10~14세         18927
##  6 4211000000 강원도 춘천시 2008년_계_15~19세         18260
##  7 4211000000 강원도 춘천시 2008년_계_20~24세         17214
##  8 4211000000 강원도 춘천시 2008년_계_25~29세         19038
##  9 4211000000 강원도 춘천시 2008년_계_30~34세         17812
## 10 4211000000 강원도 춘천시 2008년_계_35~39세         22623
## # ℹ 5,372 more rows

필요한 열 생성하기

마지막으로 위에서 생성한 age_grp열의 값을 separate() 함수를 이용하여 밑줄문자(_, underscore)를 분리자로 기존 열의 값을 분리하고 into 인수로 지정한 각 열에 배치합니다.

dat %>%
  pivot_longer(-(1:2), names_to="age_grp", values_to="pops") %>%
  separate(age_grp, into=c("year", "grp", "age_grp"), sep="_")

## # A tibble: 5,382 × 6
##    code       region        year   grp   age_grp          pops
##    <chr>      <chr>         <chr>  <chr> <chr>           <dbl>
##  1 4211000000 강원도 춘천시 2008년 계    총 인구수      261975
##  2 4211000000 강원도 춘천시 2008년 계    연령구간인구수 261975
##  3 4211000000 강원도 춘천시 2008년 계    0~4세           11381
##  4 4211000000 강원도 춘천시 2008년 계    5~9세           15326
##  5 4211000000 강원도 춘천시 2008년 계    10~14세         18927
##  6 4211000000 강원도 춘천시 2008년 계    15~19세         18260
##  7 4211000000 강원도 춘천시 2008년 계    20~24세         17214
##  8 4211000000 강원도 춘천시 2008년 계    25~29세         19038
##  9 4211000000 강원도 춘천시 2008년 계    30~34세         17812
## 10 4211000000 강원도 춘천시 2008년 계    35~39세         22623
## # ℹ 5,372 more rows
…
